<?xml version="1.0" encoding="utf-8"?>
<!-- Generator: Adobe Illustrator 16.0.0, SVG Export Plug-In . SVG Version: 6.00 Build 0)  -->
<!DOCTYPE svg PUBLIC "-//W3C//DTD SVG 1.1//EN" "http://www.w3.org/Graphics/SVG/1.1/DTD/svg11.dtd">
<svg version="1.1" id="Layer_1" xmlns="http://www.w3.org/2000/svg" xmlns:xlink="http://www.w3.org/1999/xlink" x="0px" y="0px"
	 width="160px" height="160px" viewBox="0 0 160 160" enable-background="new 0 0 160 160" xml:space="preserve">
<path fill="none" stroke="#737373" stroke-width="2" stroke-linecap="round" stroke-linejoin="round" stroke-miterlimit="10" d="
	M21.834,30.116c0-0.341,0.287-0.616,0.621-0.616h115.102c0.335,0,0.61,0.275,0.61,0.616v73.993c0,0.338-0.275,0.619-0.61,0.619
	H22.455c-0.333,0-0.621-0.281-0.621-0.619V30.116z"/>
<rect x="107.017" y="83.698" fill="#E6E6E6" width="22.513" height="1.704"/>
<rect x="107.017" y="87.85" fill="#E6E6E6" width="16.925" height="1.703"/>
<rect x="107.017" y="92.427" fill="#E6E6E6" width="22.513" height="1.704"/>
<rect x="107.017" y="96.579" fill="#E6E6E6" width="16.925" height="1.702"/>
<g>
	
		<line fill="none" stroke="#737373" stroke-width="2" stroke-linecap="round" stroke-linejoin="round" stroke-miterlimit="10" x1="61.562" y1="119.708" x2="98.438" y2="119.708"/>
	
		<line fill="none" stroke="#737373" stroke-width="2" stroke-linecap="round" stroke-linejoin="round" stroke-miterlimit="10" x1="70.302" y1="104.729" x2="70.302" y2="119.708"/>
	
		<line fill="none" stroke="#737373" stroke-width="2" stroke-linecap="round" stroke-linejoin="round" stroke-miterlimit="10" x1="89.972" y1="104.729" x2="89.972" y2="119.708"/>
</g>
<rect x="26.098" y="34.362" fill="#B6B6B6" width="14.046" height="66.367"/>
<circle fill="#D00017" cx="49.271" cy="93.513" r="3.312"/>
<circle fill="#D00017" cx="83.463" cy="75.426" r="3.034"/>
<circle fill="#D00017" cx="65.463" cy="75.426" r="3.034"/>
<circle fill="#D00017" cx="98.551" cy="56.321" r="2.904"/>
<circle fill="#D00017" cx="130.689" cy="36.217" r="3.045"/>
<polyline fill="none" stroke="#D00017" stroke-width="2" stroke-linecap="round" stroke-linejoin="round" stroke-miterlimit="10" stroke-dasharray="1,5" points="
	53.153,88.678 65.359,75.5 84.504,75.5 98.551,56.812 126.689,39.263 "/>
</svg>
