<?xml version="1.0" encoding="utf-8"?>
<!-- Generator: Adobe Illustrator 16.0.0, SVG Export Plug-In . SVG Version: 6.00 Build 0)  -->
<!DOCTYPE svg PUBLIC "-//W3C//DTD SVG 1.1//EN" "http://www.w3.org/Graphics/SVG/1.1/DTD/svg11.dtd">
<svg version="1.1" id="Layer_1" xmlns="http://www.w3.org/2000/svg" xmlns:xlink="http://www.w3.org/1999/xlink" x="0px" y="0px"
	 width="180px" height="180px" viewBox="0 0 180 180" enable-background="new 0 0 180 180" xml:space="preserve">
<polygon fill="#CDCDCD" points="127.574,33.848 125.047,39.461 141.117,78.247 143.965,77.234 "/>
<polygon fill="#CDCDCD" points="74.259,41.612 116.925,35.038 120.61,29.686 73.577,38.842 "/>
<rect x="31.011" y="163.728" fill="#D00017" width="4.989" height="3.956"/>
<rect x="55.947" y="149.464" fill="#D00017" width="6.053" height="18.028"/>
<rect x="80.312" y="133.439" fill="#D00017" width="7.688" height="34.053"/>
<rect x="104.603" y="113.697" fill="#D00017" width="8.897" height="53.795"/>
<rect x="129.039" y="93.662" fill="#D00017" width="10.961" height="73.83"/>
<path fill="none" stroke="#737373" stroke-width="2" stroke-linecap="round" stroke-linejoin="round" stroke-miterlimit="10" d="
	M140.135,79.984l4.325-1.362l-15.778-43.899l7.562-15.877c1.155-2.055,0.441-4.641-1.572-5.836
	c-2.066-1.096-4.643-0.354-5.798,1.701l-10.042,14.808l-45.255,9.324l1.089,4.402l31.92,5.937L98.04,69.654l-13.63,2.818
	l-0.365,4.45l12.974,3.19l9.48,9.414l3.603-2.626l-4.697-13.103l14.078-18.959L140.135,79.984z"/>
<path fill="#0095A5" d="M12.002,57.765"/>
<path fill="none" stroke="#737373" stroke-width="2" stroke-linecap="round" stroke-linejoin="round" stroke-miterlimit="10" stroke-dasharray="5,5" d="
	M20.585,154.226c50.561-34.511,73.012-69.014,73.012-69.014"/>
</svg>
